<svg width="100" height="100" viewBox="0 0 100 100" fill="none" xmlns="http://www.w3.org/2000/svg">
<path d="M95.3125 1.5625H4.6875C2.09863 1.5625 0 3.66113 0 6.25V75C0 75.8629 0.699609 76.5625 1.5625 76.5625H37.1562L34.6562 89.0625H31.25C30.3871 89.0625 29.6875 89.7621 29.6875 90.625V95.3125H26.5625V98.4375H73.4375V95.3125H70.3125V90.625C70.3125 89.7621 69.6129 89.0625 68.75 89.0625H65.3412L62.8412 76.5625H98.4375C99.3004 76.5625 100 75.8629 100 75V6.25C100 3.66113 97.9014 1.5625 95.3125 1.5625ZM64.0625 92.1875H67.1875V95.3125H32.8125V92.1875H35.9375H64.0625ZM37.8438 89.0625L40.3414 76.5625H59.6562L62.1562 89.0625H37.8438ZM96.875 73.4375H3.125V59.375H25H34.375H43.75H53.125H62.5H75H96.875V73.4375ZM75 15.625H62.5C61.6371 15.625 60.9375 16.3246 60.9375 17.1875V31.25H64.0625V18.75H73.4375V25H67.1875V28.125H73.4375V35.9375H67.1875V39.0625H73.4375V46.875H67.1875V50H73.4375V56.25H64.0625V43.75H60.9375V56.25H54.6875V48.4375C54.6875 42.0609 62.4313 40.6594 62.7563 40.6031C62.9488 40.5709 63.1336 40.5029 63.3012 40.4025C64.0416 39.9592 64.2824 38.9996 63.8391 38.2594L49.7766 14.8219C49.6633 14.6566 49.5205 14.5139 49.3553 14.4006C48.6158 13.8938 47.6053 14.0822 47.0984 14.8219L33.0359 38.2594C32.9361 38.4258 32.8682 38.6094 32.8357 38.8008C32.691 39.6516 33.2633 40.4584 34.1141 40.6031C34.4437 40.6594 42.1875 42.0609 42.1875 48.4375V56.25H35.9375V43.75H32.8125V56.25H31.25V28.125H32.8125V31.25H35.9375V26.5625C35.9379 26.3508 35.8949 26.1412 35.8109 25.9469L31.1234 15.0094C30.9654 14.641 30.6719 14.3475 30.3035 14.1895C29.5105 13.8492 28.5918 14.2164 28.2516 15.0094L23.5641 25.9469C23.4801 26.1412 23.4371 26.3508 23.4375 26.5625V56.25H10.9375V12.5H89.0625V56.25H76.5625V17.1875C76.5625 16.3246 75.8629 15.625 75 15.625ZM45.3125 51.5625V50H51.5625V51.5625H45.3125ZM51.5625 54.6875V56.25H45.3125V54.6875H51.5625ZM45.1984 46.875C44.45 41.9062 40.1953 39.2188 36.7922 38.0703L46.875 21.2666V34.375H50V21.2666L60.0828 38.0703C56.6766 39.2109 52.425 41.9062 51.6766 46.875H45.1984ZM27.3662 25L29.6875 19.5844L32.0088 25H27.3662ZM28.125 28.125V56.25H26.5625V28.125H28.125ZM96.875 56.25H92.1875V10.9375C92.1875 10.0746 91.4879 9.375 90.625 9.375H9.375C8.51211 9.375 7.8125 10.0746 7.8125 10.9375V56.25H3.125V6.25C3.125 5.38711 3.82461 4.6875 4.6875 4.6875H95.3125C96.1754 4.6875 96.875 5.38711 96.875 6.25V56.25Z" fill="white"/>
<path d="M50 60.9375C47.4111 60.9375 45.3125 63.0361 45.3125 65.625C45.3125 68.2139 47.4111 70.3125 50 70.3125C52.5889 70.3125 54.6875 68.2139 54.6875 65.625C54.6875 63.0361 52.5889 60.9375 50 60.9375ZM50 67.1875C49.1371 67.1875 48.4375 66.4879 48.4375 65.625C48.4375 64.7621 49.1371 64.0625 50 64.0625C50.8629 64.0625 51.5625 64.7621 51.5625 65.625C51.5625 66.4879 50.8629 67.1875 50 67.1875Z" fill="white"/>
</svg>
