<svg width="48" height="45" viewBox="0 0 48 45" fill="none" xmlns="http://www.w3.org/2000/svg">
<path d="M21.2599 2.14717C22.317 -0.224291 25.683 -0.224287 26.7401 2.14718L31.1689 12.0828C31.6049 13.0609 32.5292 13.7324 33.5941 13.8448L44.4121 14.9866C46.9941 15.2591 48.0343 18.4604 46.1055 20.1986L38.0248 27.4809C37.2293 28.1978 36.8762 29.2844 37.0984 30.3319L39.3554 40.9732C39.8942 43.5131 37.171 45.4916 34.9219 44.1944L25.4989 38.7595C24.5712 38.2245 23.4288 38.2245 22.5011 38.7595L13.0781 44.1944C10.829 45.4916 8.10583 43.5131 8.64455 40.9732L10.9016 30.3319C11.1238 29.2844 10.7707 28.1978 9.97523 27.4809L1.89446 20.1986C-0.034277 18.4604 1.00589 15.2591 3.58794 14.9866L14.4059 13.8448C15.4708 13.7324 16.3951 13.0609 16.8311 12.0828L21.2599 2.14717Z" fill="#387EBF"/>
</svg>
